<?xml version="1.0" encoding="UTF-8" standalone="yes"?>
<svg viewBox="0 0 2560 960" style="fill-rule:evenodd;stroke-linecap:square;stroke-linejoin:round;stroke-width:10" height="100%" width="100%" xmlns="http://www.w3.org/2000/svg">
  <rect id="block-1" class="block" fill="#c0c0c0" x="0" y="0" width="2560" height="960" />
  <path id="area-1" class="area closed" fill="#000000" stroke="none" d="M 730,430 l -25,45 l 10,30 l 20,50 l 30,-40 v -40 Z" />
  <path id="area-2" class="area closed" fill="#000000" stroke="none" d="M 1655,495 l -80,-80 l 20,70 l -40,40 l 10,40 l 30,80 l 40,-60 l 20,-60 Z" />
  <path id="line-3" class="line closed" fill="none" stroke="#000000" d="M 15,1005 h 2540 v -1000 h -2550 v 1000 Z" />
  <path id="line-4" class="line closed" fill="none" stroke="#000000" d="M 35,985 h 2500 v -960 h -2510 v 960 Z" />
  <path id="line-5" class="line" fill="none" stroke="#000000" d="M 475,665 l 30,-10 h 20 l 40,30 v 40 l -20,20 l -20,30 v 30 l 30,10 h 90 l 40,-30 v -40 l -20,-40 l -20,-20 l -10,-30 l -60,-40" />
  <path id="line-6" class="line" fill="none" stroke="#000000" d="M 635,645 l 10,-20 l -40,-50 l -30,-60 v -60 l 30,-40 l 80,-80 l 60,-80 h 40 l 60,40 h 60 l 30,40 l 50,30 l 10,50 l -30,60 v 30 l 20,60 l 30,40" />
  <path id="line-7" class="line" fill="none" stroke="#000000" d="M 1075,545 l -40,30 l 10,30 h -30 l -30,40 v 20" />
  <path id="line-8" class="line" fill="none" stroke="#000000" d="M 1075,725 l -30,-10 l -40,-40 l -20,-10 h -30 l -30,20 l -40,50 l -10,20 v 30 l 30,30 h 140 l 30,-10 v -20 l -40,-30" />
  <path id="line-9" class="line" fill="none" stroke="#000000" d="M 865,775 l -20,-20 l -50,-40 l -30,-20 l -80,-40 v -50 h 30 l 20,-50 l 30,-40 v -40 l -30,-40 l -90,-60" />
  <path id="line-10" class="line" fill="none" stroke="#000000" d="M 725,445 l -20,30 l 10,30 l 20,50" />
  <path id="line-11" class="line" fill="none" stroke="#000000" d="M 675,665 l -30,20" />
  <path id="line-12" class="line" fill="none" stroke="#000000" d="M 805,345 l 40,60" />
  <path id="line-13" class="line" fill="none" stroke="#000000" d="M 675,445 l -30,60 l 10,20" />
  <path id="line-14" class="line" fill="none" stroke="#000000" d="M 885,465 l 10,30 l -50,70" />
  <path id="line-15" class="line" fill="none" stroke="#000000" d="M 885,665 l -40,70" />
  <path id="line-16" class="line" fill="none" stroke="#000000" d="M 755,585 l -10,20 v 30 l -20,20" />
  <path id="line-17" class="line" fill="none" stroke="#000000" d="M 1195,745 l -20,20 v 30 l 20,20 h 110 l 30,-50 l -10,-30 l -50,-100 l -20,-30 l -30,-20" />
  <path id="line-18" class="line" fill="none" stroke="#000000" d="M 1285,625 l 50,-50 l -80,-140 v -60 l 30,-40 l 50,-30 l 80,-50 l 50,-30 l 10,-20 l -10,-30" />
  <path id="line-19" class="line" fill="none" stroke="#000000" d="M 1425,255 h 40 l 30,10 l 70,70 l 10,80 l 20,70 l -40,40 l 10,40 l 30,80 l -290,170" />
  <path id="line-20" class="line" fill="none" stroke="#000000" d="M 1685,675 l 10,30 l 40,60 v 30 l -20,20 h -110 l -30,-40 v -70 l 20,-60 l 40,-60 l 20,-60 v -30 l 20,-30 v -30 l 30,-10 l 30,-40" />
  <path id="line-21" class="line" fill="none" stroke="#000000" d="M 1645,485 l -70,-70" />
  <path id="line-22" class="line" fill="none" stroke="#000000" d="M 1405,345 l -20,50 v 30 l 30,70" />
  <path id="line-23" class="line" fill="none" stroke="#000000" d="M 1535,345 l -40,70 l 40,80" />
  <path id="line-24" class="line" fill="none" stroke="#000000" d="M 1435,575 l -20,30 l 30,70 l -20,50" />
  <path id="line-25" class="line" fill="none" stroke="#000000" d="M 1515,595 l 30,70" />
  <path id="line-26" class="line closed" fill="none" stroke="#000000" d="M 1245,895 l -10,10 h -30 l -10,-20 l -20,-10 l 30,-20 v 10 v -10 h 40 l 10,30 Z" />
  <path id="line-27" class="line" fill="none" stroke="#000000" d="M 1225,845 l -40,-20 l -30,-10 l -20,20 l -20,-10 h 10 l 10,10 l -10,20" />
  <path id="line-28" class="line" fill="none" stroke="#000000" d="M 1165,875 h -10 l -20,-10 l -20,-20 l -20,-50 l -10,-10 h -20 v 10 h -20 l -20,30 l 10,20 v 30 l 30,20 h 40 v -20 l 30,-10" />
  <path id="line-29" class="line" fill="none" stroke="#000000" d="M 1135,885 h 20 v -10" />
  <path id="line-30" class="line" fill="none" stroke="#000000" d="M 1025,845 h -10 l -20,10 l -10,-10 h -20 l -30,30 l 30,20 h 30" />
  <path id="line-31" class="line closed" fill="none" stroke="#000000" d="M 1025,865 v 40 h -20 l -30,-40 l 40,-10 Z" />
  <path id="line-32" class="line" fill="none" stroke="#000000" d="M 975,835 l 20,-10 l 20,20" />
  <path id="line-33" class="line" fill="none" stroke="#000000" d="M 1155,845 h 30 v -10" />
  <path id="line-34" class="line closed" fill="none" stroke="#000000" d="M 1055,825 h 10 Z" />
  <path id="line-35" class="line" fill="none" stroke="#000000" d="M 1075,815 l 0,0" />
  <path id="line-36" class="line" fill="none" stroke="#000000" d="M 1075,845 l 10,-10 l 10,20" />
  <path id="line-37" class="line closed" fill="none" stroke="#000000" d="M 415,895 l -10,10 h -30 l -10,-20 l -20,-10 l 30,-20 v 10 v -10 h 40 l 10,30 Z" />
  <path id="line-38" class="line" fill="none" stroke="#000000" d="M 395,845 l -40,-20 l -30,-10 l -20,20 l -20,-10 h 10 l 10,10 l -10,20" />
  <path id="line-39" class="line" fill="none" stroke="#000000" d="M 335,875 h -10 l -20,-10 l -20,-20 l -20,-50 l -10,-10 h -20 v 10 h -20 l -20,30 l 10,20 v 30 l 30,20 h 40 v -20 l 30,-10" />
  <path id="line-40" class="line" fill="none" stroke="#000000" d="M 305,885 h 20 v -10" />
  <path id="line-41" class="line" fill="none" stroke="#000000" d="M 195,845 h -10 l -20,10 l -10,-10 h -20 l -30,30 l 30,20 h 30" />
  <path id="line-42" class="line closed" fill="none" stroke="#000000" d="M 195,865 v 40 h -20 l -30,-40 l 40,-10 Z" />
  <path id="line-43" class="line" fill="none" stroke="#000000" d="M 145,835 l 20,-10 l 20,20" />
  <path id="line-44" class="line" fill="none" stroke="#000000" d="M 325,845 h 30 v -10" />
  <path id="line-45" class="line closed" fill="none" stroke="#000000" d="M 225,825 h 10 Z" />
  <path id="line-46" class="line" fill="none" stroke="#000000" d="M 245,815 l 0,0" />
  <path id="line-47" class="line" fill="none" stroke="#000000" d="M 245,845 l 10,-10 l 10,20" />
  <path id="line-48" class="line closed" fill="none" stroke="#000000" d="M 525,815 l -10,10 h -30 l -10,-20 l -20,-10 l 30,-20 v 10 v -10 h 40 l 10,30 Z" />
  <path id="line-49" class="line" fill="none" stroke="#000000" d="M 505,765 l -40,-20 l -30,-10 l -20,20 l -20,-10 h 10 l 10,10 l -10,20" />
  <path id="line-50" class="line" fill="none" stroke="#000000" d="M 445,795 h -10 l -20,-10 l -20,-20 l -20,-50 l -10,-10 h -20 v 10 h -20 l -20,30 l 10,20 v 30 l 30,20 h 40 v -20 l 30,-10" />
  <path id="line-51" class="line" fill="none" stroke="#000000" d="M 415,805 h 20 v -10" />
  <path id="line-52" class="line" fill="none" stroke="#000000" d="M 305,765 h -10 l -20,10 l -10,-10 h -20 l -30,30 l 30,20 h 30" />
  <path id="line-53" class="line closed" fill="none" stroke="#000000" d="M 305,785 v 40 h -20 l -30,-40 l 40,-10 Z" />
  <path id="line-54" class="line" fill="none" stroke="#000000" d="M 255,755 l 20,-10 l 20,20" />
  <path id="line-55" class="line" fill="none" stroke="#000000" d="M 435,765 h 30 v -10" />
  <path id="line-56" class="line closed" fill="none" stroke="#000000" d="M 335,745 h 10 Z" />
  <path id="line-57" class="line" fill="none" stroke="#000000" d="M 355,735 l 0,0" />
  <path id="line-58" class="line" fill="none" stroke="#000000" d="M 355,765 l 10,-10 l 10,20" />
  <path id="line-59" class="line closed" fill="none" stroke="#000000" d="M 415,975 l -10,10 h -30 l -10,-20 l -20,-10 l 30,-20 v 10 v -10 h 40 l 10,30 Z" />
  <path id="line-60" class="line" fill="none" stroke="#000000" d="M 395,925 l -40,-20 l -30,-10 l -20,20 l -20,-10 h 10 l 10,10 l -10,20" />
  <path id="line-61" class="line" fill="none" stroke="#000000" d="M 335,955 h -10 l -20,-10 l -20,-20 l -20,-50 l -10,-10 h -20 v 10 h -20 l -20,30 l 10,20 v 30 l 30,20 h 40 v -20 l 30,-10" />
  <path id="line-62" class="line" fill="none" stroke="#000000" d="M 305,965 h 20 v -10" />
  <path id="line-63" class="line" fill="none" stroke="#000000" d="M 195,925 h -10 l -20,10 l -10,-10 h -20 l -30,30 l 30,20 h 30" />
  <path id="line-64" class="line closed" fill="none" stroke="#000000" d="M 195,945 v 40 h -20 l -30,-40 l 40,-10 Z" />
  <path id="line-65" class="line" fill="none" stroke="#000000" d="M 145,915 l 20,-10 l 20,20" />
  <path id="line-66" class="line" fill="none" stroke="#000000" d="M 325,925 h 30 v -10" />
  <path id="line-67" class="line closed" fill="none" stroke="#000000" d="M 225,905 h 10 Z" />
  <path id="line-68" class="line" fill="none" stroke="#000000" d="M 245,895 l 0,0" />
  <path id="line-69" class="line" fill="none" stroke="#000000" d="M 245,925 l 10,-10 l 10,20" />
  <path id="line-70" class="line closed" fill="none" stroke="#000000" d="M 2455,965 l -10,10 h -30 l -10,-20 l -20,-10 l 30,-20 v 10 v -10 h 40 l 10,30 Z" />
  <path id="line-71" class="line" fill="none" stroke="#000000" d="M 2435,915 l -40,-20 l -30,-10 l -20,20 l -20,-10 h 10 l 10,10 l -10,20" />
  <path id="line-72" class="line" fill="none" stroke="#000000" d="M 2375,945 h -10 l -20,-10 l -20,-20 l -20,-50 l -10,-10 h -20 v 10 h -20 l -20,30 l 10,20 v 30 l 30,20 h 40 v -20 l 30,-10" />
  <path id="line-73" class="line" fill="none" stroke="#000000" d="M 2345,955 h 20 v -10" />
  <path id="line-74" class="line" fill="none" stroke="#000000" d="M 2235,915 h -10 l -20,10 l -10,-10 h -20 l -30,30 l 30,20 h 30" />
  <path id="line-75" class="line closed" fill="none" stroke="#000000" d="M 2235,935 v 40 h -20 l -30,-40 l 40,-10 Z" />
  <path id="line-76" class="line" fill="none" stroke="#000000" d="M 2185,905 l 20,-10 l 20,20" />
  <path id="line-77" class="line" fill="none" stroke="#000000" d="M 2365,915 h 30 v -10" />
  <path id="line-78" class="line closed" fill="none" stroke="#000000" d="M 2265,895 h 10 Z" />
  <path id="line-79" class="line" fill="none" stroke="#000000" d="M 2285,885 l 0,0" />
  <path id="line-80" class="line" fill="none" stroke="#000000" d="M 2285,915 l 10,-10 l 10,20" />
  <path id="line-81" class="line closed" fill="none" stroke="#000000" d="M 2165,855 l -10,10 h -30 l -10,-20 l -20,-10 l 30,-20 v 10 v -10 h 40 l 10,30 Z" />
  <path id="line-82" class="line" fill="none" stroke="#000000" d="M 2145,805 l -40,-20 l -30,-10 l -20,20 l -20,-10 h 10 l 10,10 l -10,20" />
  <path id="line-83" class="line" fill="none" stroke="#000000" d="M 2085,835 h -10 l -20,-10 l -20,-20 l -20,-50 l -10,-10 h -20 v 10 h -20 l -20,30 l 10,20 v 30 l 30,20 h 40 v -20 l 30,-10" />
  <path id="line-84" class="line" fill="none" stroke="#000000" d="M 2055,845 h 20 v -10" />
  <path id="line-85" class="line" fill="none" stroke="#000000" d="M 1945,805 h -10 l -20,10 l -10,-10 h -20 l -30,30 l 30,20 h 30" />
  <path id="line-86" class="line closed" fill="none" stroke="#000000" d="M 1945,825 v 40 h -20 l -30,-40 l 40,-10 Z" />
  <path id="line-87" class="line" fill="none" stroke="#000000" d="M 1895,795 l 20,-10 l 20,20" />
  <path id="line-88" class="line" fill="none" stroke="#000000" d="M 2075,805 h 30 v -10" />
  <path id="line-89" class="line closed" fill="none" stroke="#000000" d="M 1975,785 h 10 Z" />
  <path id="line-90" class="line" fill="none" stroke="#000000" d="M 1995,775 l 0,0" />
  <path id="line-91" class="line" fill="none" stroke="#000000" d="M 1995,805 l 10,-10 l 10,20" />
  <path id="line-92" class="line" fill="none" stroke="#000000" d="M 2045,435 l -30,30 v 20 l -30,30 v 20 l -30,30 v 20 l -30,30 v 20 l -30,30 v 20 l -30,30 v 20" />
  <path id="line-93" class="line" fill="none" stroke="#000000" d="M 1935,555 l -30,-30 v -20 l -20,-20 v -20 l -70,-70 v -20 l -30,-30 v -30" />
  <path id="line-94" class="line" fill="none" stroke="#000000" d="M 2135,175 l -5,5 v 15 l -25,20 v 15 l -15,15 v 15 l -15,15 l 15,15 v 15 l 25,25 v 30 l 20,20" />
  <path id="line-95" class="line" fill="none" stroke="#000000" d="M 2415,395 l -15,10 v 30 l 25,85 l -15,15 v 15 l -15,15 l -25,35" />
  <path id="line-96" class="line" fill="none" stroke="#000000" d="M 2225,585 l -5,5 v 15 l -25,20 v 15 l -15,15 v 15 l -15,15 l 15,15 v 15 l 25,25 v 30 l 20,20" />
  <path id="line-97" class="line" fill="none" stroke="#000000" d="M 1155,195 l -20,20 v 40 l 30,110 l -20,20 v 20 l -20,20 l -30,50" />
  <path id="line-98" class="line" fill="none" stroke="#000000" d="M 465,225 l -10,10 v 20 l -30,30 v 20 l -20,20 v 20 l -20,20 l 20,20 v 20 l 30,30 v 40 l 30,30" />
  <path id="line-99" class="line" fill="none" stroke="#000000" d="M 265,565 l -15,15 v 10 l -20,20 v 10 l -20,20 v 15 l -20,15 v 15 l -15,20 v 10 l -20,20 v 10" />
  <path id="line-100" class="line" fill="none" stroke="#000000" d="M 245,575 l -15,-15 v -15 l -15,-10 v -15 l -45,-45 v -10 l -15,-20 v -20" />
  <path id="line-101" class="line" fill="none" stroke="#000000" d="M 645,95 l -5,5 v 20 l 15,55 l -10,10 v 10 l -10,10 l -15,25" />
  <path id="line-102" class="line closed" fill="none" stroke="#000000" d="M 2235,905 l -10,10 h -30 l -10,-20 l -20,-10 l 30,-20 v 10 v -10 h 40 l 10,30 Z" />
  <path id="line-103" class="line" fill="none" stroke="#000000" d="M 2215,855 l -40,-20 l -30,-10 l -20,20 l -20,-10 h 10 l 10,10 l -10,20" />
  <path id="line-104" class="line" fill="none" stroke="#000000" d="M 2155,885 h -10 l -20,-10 l -20,-20 l -20,-50 l -10,-10 h -20 v 10 h -20 l -20,30 l 10,20 v 30 l 30,20 h 40 v -20 l 30,-10" />
  <path id="line-105" class="line" fill="none" stroke="#000000" d="M 2125,895 h 20 v -10" />
  <path id="line-106" class="line" fill="none" stroke="#000000" d="M 2015,855 h -10 l -20,10 l -10,-10 h -20 l -30,30 l 30,20 h 30" />
  <path id="line-107" class="line closed" fill="none" stroke="#000000" d="M 2015,875 v 40 h -20 l -30,-40 l 40,-10 Z" />
  <path id="line-108" class="line" fill="none" stroke="#000000" d="M 1965,845 l 20,-10 l 20,20" />
  <path id="line-109" class="line" fill="none" stroke="#000000" d="M 2145,855 h 30 v -10" />
  <path id="line-110" class="line closed" fill="none" stroke="#000000" d="M 2045,835 h 10 Z" />
  <path id="line-111" class="line" fill="none" stroke="#000000" d="M 2065,825 l 0,0" />
  <path id="line-112" class="line" fill="none" stroke="#000000" d="M 2065,855 l 10,-10 l 10,20" />
  <path id="line-113" class="line closed" fill="none" stroke="#000000" d="M 2045,815 l -10,10 h -30 l -10,-20 l -20,-10 l 30,-20 v 10 v -10 h 40 l 10,30 Z" />
  <path id="line-114" class="line" fill="none" stroke="#000000" d="M 2025,765 l -40,-20 l -30,-10 l -20,20 l -20,-10 h 10 l 10,10 l -10,20" />
  <path id="line-115" class="line" fill="none" stroke="#000000" d="M 1965,795 h -10 l -20,-10 l -20,-20 l -20,-50 l -10,-10 h -20 v 10 h -20 l -20,30 l 10,20 v 30 l 30,20 h 40 v -20 l 30,-10" />
  <path id="line-116" class="line" fill="none" stroke="#000000" d="M 1935,805 h 20 v -10" />
  <path id="line-117" class="line" fill="none" stroke="#000000" d="M 1825,765 h -10 l -20,10 l -10,-10 h -20 l -30,30 l 30,20 h 30" />
  <path id="line-118" class="line closed" fill="none" stroke="#000000" d="M 1825,785 v 40 h -20 l -30,-40 l 40,-10 Z" />
  <path id="line-119" class="line" fill="none" stroke="#000000" d="M 1775,755 l 20,-10 l 20,20" />
  <path id="line-120" class="line" fill="none" stroke="#000000" d="M 1955,765 h 30 v -10" />
  <path id="line-121" class="line closed" fill="none" stroke="#000000" d="M 1855,745 h 10 Z" />
  <path id="line-122" class="line" fill="none" stroke="#000000" d="M 1875,735 l 0,0" />
  <path id="line-123" class="line" fill="none" stroke="#000000" d="M 1875,765 l 10,-10 l 10,20" />
  <path id="line-124" class="line" fill="none" stroke="#000000" d="M 1905,505 l -15,10 v 30 l 25,85 l -15,15 v 15 l -15,15 l -25,35" />
</svg>
