<?xml version="1.0" encoding="UTF-8" standalone="yes"?>
<svg viewBox="0 0 2560 960" style="fill-rule:evenodd;stroke-linecap:square;stroke-linejoin:round;stroke-width:10" height="100%" width="100%" xmlns="http://www.w3.org/2000/svg">
  <rect id="block-1" class="block" fill="#c0c0c0" x="0" y="0" width="2560" height="960" />
  <path id="area-1" class="area closed" fill="#000000" stroke="none" d="M 390,470 l -25,45 l 10,30 l 20,50 l 30,-40 v -40 Z" />
  <path id="area-2" class="area closed" fill="#000000" stroke="none" d="M 1205,445 l -80,-80 l 20,70 l -40,40 l 10,40 l 30,80 l 40,-60 l 20,-60 Z" />
  <path id="area-3" class="area closed" fill="#000000" stroke="none" d="M 1450,380 l -25,45 l 10,30 l 20,50 l 30,-40 v -40 Z" />
  <path id="area-4" class="area closed" fill="#000000" stroke="none" d="M 2335,505 l -80,-80 l 20,70 l -40,40 l 10,40 l 30,80 l 40,-60 l 20,-60 Z" />
  <path id="line-5" class="line closed" fill="none" stroke="#000000" d="M 15,1005 h 2540 v -1000 h -2550 v 1000 Z" />
  <path id="line-6" class="line closed" fill="none" stroke="#000000" d="M 35,985 h 2500 v -960 h -2510 v 960 Z" />
  <path id="line-7" class="line" fill="none" stroke="#000000" d="M 135,705 l 30,-10 h 20 l 40,30 v 40 l -20,20 l -20,30 v 30 l 30,10 h 90 l 40,-30 v -40 l -20,-40 l -20,-20 l -10,-30 l -60,-40" />
  <path id="line-8" class="line" fill="none" stroke="#000000" d="M 295,685 l 10,-20 l -40,-50 l -30,-60 v -60 l 30,-40 l 80,-80 l 60,-80 h 40 l 60,40 h 60 l 30,40 l 50,30 l 10,50 l -30,60 v 30 l 20,60 l 30,40" />
  <path id="line-9" class="line" fill="none" stroke="#000000" d="M 735,585 l -40,30 l 10,30 h -30 l -30,40 v 20" />
  <path id="line-10" class="line" fill="none" stroke="#000000" d="M 735,765 l -30,-10 l -40,-40 l -20,-10 h -30 l -30,20 l -40,50 l -10,20 v 30 l 30,30 h 140 l 30,-10 v -20 l -40,-30" />
  <path id="line-11" class="line" fill="none" stroke="#000000" d="M 525,815 l -20,-20 l -50,-40 l -30,-20 l -80,-40 v -50 h 30 l 20,-50 l 30,-40 v -40 l -30,-40 l -90,-60" />
  <path id="line-12" class="line" fill="none" stroke="#000000" d="M 385,485 l -20,30 l 10,30 l 20,50" />
  <path id="line-13" class="line" fill="none" stroke="#000000" d="M 335,705 l -30,20" />
  <path id="line-14" class="line" fill="none" stroke="#000000" d="M 465,385 l 40,60" />
  <path id="line-15" class="line" fill="none" stroke="#000000" d="M 335,485 l -30,60 l 10,20" />
  <path id="line-16" class="line" fill="none" stroke="#000000" d="M 545,505 l 10,30 l -50,70" />
  <path id="line-17" class="line" fill="none" stroke="#000000" d="M 545,705 l -40,70" />
  <path id="line-18" class="line" fill="none" stroke="#000000" d="M 415,625 l -10,20 v 30 l -20,20" />
  <path id="line-19" class="line" fill="none" stroke="#000000" d="M 745,695 l -20,20 v 30 l 20,20 h 110 l 30,-50 l -10,-30 l -50,-100 l -20,-30 l -30,-20" />
  <path id="line-20" class="line" fill="none" stroke="#000000" d="M 835,575 l 50,-50 l -80,-140 v -60 l 30,-40 l 50,-30 l 80,-50 l 50,-30 l 10,-20 l -10,-30" />
  <path id="line-21" class="line" fill="none" stroke="#000000" d="M 975,205 h 40 l 30,10 l 70,70 l 10,80 l 20,70 l -40,40 l 10,40 l 30,80 l -290,170" />
  <path id="line-22" class="line" fill="none" stroke="#000000" d="M 1235,625 l 10,30 l 40,60 v 30 l -20,20 h -110 l -30,-40 v -70 l 20,-60 l 40,-60 l 20,-60 v -30 l 20,-30 v -30 l 30,-10 l 30,-40" />
  <path id="line-23" class="line" fill="none" stroke="#000000" d="M 1195,435 l -70,-70" />
  <path id="line-24" class="line" fill="none" stroke="#000000" d="M 955,295 l -20,50 v 30 l 30,70" />
  <path id="line-25" class="line" fill="none" stroke="#000000" d="M 1085,295 l -40,70 l 40,80" />
  <path id="line-26" class="line" fill="none" stroke="#000000" d="M 985,525 l -20,30 l 30,70 l -20,50" />
  <path id="line-27" class="line" fill="none" stroke="#000000" d="M 1065,545 l 30,70" />
  <path id="line-28" class="line" fill="none" stroke="#000000" d="M 1195,615 l 30,-10 h 20 l 40,30 v 40 l -20,20 l -20,30 v 30 l 30,10 h 90 l 40,-30 v -40 l -20,-40 l -20,-20 l -10,-30 l -60,-40" />
  <path id="line-29" class="line" fill="none" stroke="#000000" d="M 1355,595 l 10,-20 l -40,-50 l -30,-60 v -60 l 30,-40 l 80,-80 l 60,-80 h 40 l 60,40 h 60 l 30,40 l 50,30 l 10,50 l -30,60 v 30 l 20,60 l 30,40" />
  <path id="line-30" class="line" fill="none" stroke="#000000" d="M 1795,495 l -40,30 l 10,30 h -30 l -30,40 v 20" />
  <path id="line-31" class="line" fill="none" stroke="#000000" d="M 1795,675 l -30,-10 l -40,-40 l -20,-10 h -30 l -30,20 l -40,50 l -10,20 v 30 l 30,30 h 140 l 30,-10 v -20 l -40,-30" />
  <path id="line-32" class="line" fill="none" stroke="#000000" d="M 1585,725 l -20,-20 l -50,-40 l -30,-20 l -80,-40 v -50 h 30 l 20,-50 l 30,-40 v -40 l -30,-40 l -90,-60" />
  <path id="line-33" class="line" fill="none" stroke="#000000" d="M 1445,395 l -20,30 l 10,30 l 20,50" />
  <path id="line-34" class="line" fill="none" stroke="#000000" d="M 1395,615 l -30,20" />
  <path id="line-35" class="line" fill="none" stroke="#000000" d="M 1525,295 l 40,60" />
  <path id="line-36" class="line" fill="none" stroke="#000000" d="M 1395,395 l -30,60 l 10,20" />
  <path id="line-37" class="line" fill="none" stroke="#000000" d="M 1605,415 l 10,30 l -50,70" />
  <path id="line-38" class="line" fill="none" stroke="#000000" d="M 1605,615 l -40,70" />
  <path id="line-39" class="line" fill="none" stroke="#000000" d="M 1475,535 l -10,20 v 30 l -20,20" />
  <path id="line-40" class="line" fill="none" stroke="#000000" d="M 1875,755 l -20,20 v 30 l 20,20 h 110 l 30,-50 l -10,-30 l -50,-100 l -20,-30 l -30,-20" />
  <path id="line-41" class="line" fill="none" stroke="#000000" d="M 1965,635 l 50,-50 l -80,-140 v -60 l 30,-40 l 50,-30 l 80,-50 l 50,-30 l 10,-20 l -10,-30" />
  <path id="line-42" class="line" fill="none" stroke="#000000" d="M 2105,265 h 40 l 30,10 l 70,70 l 10,80 l 20,70 l -40,40 l 10,40 l 30,80 l -290,170" />
  <path id="line-43" class="line" fill="none" stroke="#000000" d="M 2365,685 l 10,30 l 40,60 v 30 l -20,20 h -110 l -30,-40 v -70 l 20,-60 l 40,-60 l 20,-60 v -30 l 20,-30 v -30 l 30,-10 l 30,-40" />
  <path id="line-44" class="line" fill="none" stroke="#000000" d="M 2325,495 l -70,-70" />
  <path id="line-45" class="line" fill="none" stroke="#000000" d="M 2085,355 l -20,50 v 30 l 30,70" />
  <path id="line-46" class="line" fill="none" stroke="#000000" d="M 2215,355 l -40,70 l 40,80" />
  <path id="line-47" class="line" fill="none" stroke="#000000" d="M 2115,585 l -20,30 l 30,70 l -20,50" />
  <path id="line-48" class="line" fill="none" stroke="#000000" d="M 2195,605 l 30,70" />
  <path id="line-49" class="line closed" fill="none" stroke="#000000" d="M 1275,825 l -10,10 h -30 l -10,-20 l -20,-10 l 30,-20 v 10 v -10 h 40 l 10,30 Z" />
  <path id="line-50" class="line" fill="none" stroke="#000000" d="M 1255,775 l -40,-20 l -30,-10 l -20,20 l -20,-10 h 10 l 10,10 l -10,20" />
  <path id="line-51" class="line" fill="none" stroke="#000000" d="M 1195,805 h -10 l -20,-10 l -20,-20 l -20,-50 l -10,-10 h -20 v 10 h -20 l -20,30 l 10,20 v 30 l 30,20 h 40 v -20 l 30,-10" />
  <path id="line-52" class="line" fill="none" stroke="#000000" d="M 1165,815 h 20 v -10" />
  <path id="line-53" class="line" fill="none" stroke="#000000" d="M 1055,775 h -10 l -20,10 l -10,-10 h -20 l -30,30 l 30,20 h 30" />
  <path id="line-54" class="line closed" fill="none" stroke="#000000" d="M 1055,795 v 40 h -20 l -30,-40 l 40,-10 Z" />
  <path id="line-55" class="line" fill="none" stroke="#000000" d="M 1005,765 l 20,-10 l 20,20" />
  <path id="line-56" class="line" fill="none" stroke="#000000" d="M 1185,775 h 30 v -10" />
  <path id="line-57" class="line closed" fill="none" stroke="#000000" d="M 1085,755 h 10 Z" />
  <path id="line-58" class="line" fill="none" stroke="#000000" d="M 1105,745 l 0,0" />
  <path id="line-59" class="line" fill="none" stroke="#000000" d="M 1105,775 l 10,-10 l 10,20" />
  <path id="line-60" class="line closed" fill="none" stroke="#000000" d="M 1565,825 l -10,10 h -30 l -10,-20 l -20,-10 l 30,-20 v 10 v -10 h 40 l 10,30 Z" />
  <path id="line-61" class="line" fill="none" stroke="#000000" d="M 1545,775 l -40,-20 l -30,-10 l -20,20 l -20,-10 h 10 l 10,10 l -10,20" />
  <path id="line-62" class="line" fill="none" stroke="#000000" d="M 1485,805 h -10 l -20,-10 l -20,-20 l -20,-50 l -10,-10 h -20 v 10 h -20 l -20,30 l 10,20 v 30 l 30,20 h 40 v -20 l 30,-10" />
  <path id="line-63" class="line" fill="none" stroke="#000000" d="M 1455,815 h 20 v -10" />
  <path id="line-64" class="line" fill="none" stroke="#000000" d="M 1345,775 h -10 l -20,10 l -10,-10 h -20 l -30,30 l 30,20 h 30" />
  <path id="line-65" class="line closed" fill="none" stroke="#000000" d="M 1345,795 v 40 h -20 l -30,-40 l 40,-10 Z" />
  <path id="line-66" class="line" fill="none" stroke="#000000" d="M 1295,765 l 20,-10 l 20,20" />
  <path id="line-67" class="line" fill="none" stroke="#000000" d="M 1475,775 h 30 v -10" />
  <path id="line-68" class="line closed" fill="none" stroke="#000000" d="M 1375,755 h 10 Z" />
  <path id="line-69" class="line" fill="none" stroke="#000000" d="M 1395,745 l 0,0" />
  <path id="line-70" class="line" fill="none" stroke="#000000" d="M 1395,775 l 10,-10 l 10,20" />
  <path id="line-71" class="line closed" fill="none" stroke="#000000" d="M 2485,905 l -10,10 h -30 l -10,-20 l -20,-10 l 30,-20 v 10 v -10 h 40 l 10,30 Z" />
  <path id="line-72" class="line" fill="none" stroke="#000000" d="M 2465,855 l -40,-20 l -30,-10 l -20,20 l -20,-10 h 10 l 10,10 l -10,20" />
  <path id="line-73" class="line" fill="none" stroke="#000000" d="M 2405,885 h -10 l -20,-10 l -20,-20 l -20,-50 l -10,-10 h -20 v 10 h -20 l -20,30 l 10,20 v 30 l 30,20 h 40 v -20 l 30,-10" />
  <path id="line-74" class="line" fill="none" stroke="#000000" d="M 2375,895 h 20 v -10" />
  <path id="line-75" class="line" fill="none" stroke="#000000" d="M 2265,855 h -10 l -20,10 l -10,-10 h -20 l -30,30 l 30,20 h 30" />
  <path id="line-76" class="line closed" fill="none" stroke="#000000" d="M 2265,875 v 40 h -20 l -30,-40 l 40,-10 Z" />
  <path id="line-77" class="line" fill="none" stroke="#000000" d="M 2215,845 l 20,-10 l 20,20" />
  <path id="line-78" class="line" fill="none" stroke="#000000" d="M 2395,855 h 30 v -10" />
  <path id="line-79" class="line closed" fill="none" stroke="#000000" d="M 2295,835 h 10 Z" />
  <path id="line-80" class="line" fill="none" stroke="#000000" d="M 2315,825 l 0,0" />
  <path id="line-81" class="line" fill="none" stroke="#000000" d="M 2315,855 l 10,-10 l 10,20" />
  <path id="line-82" class="line closed" fill="none" stroke="#000000" d="M 365,955 l -10,10 h -30 l -10,-20 l -20,-10 l 30,-20 v 10 v -10 h 40 l 10,30 Z" />
  <path id="line-83" class="line" fill="none" stroke="#000000" d="M 345,905 l -40,-20 l -30,-10 l -20,20 l -20,-10 h 10 l 10,10 l -10,20" />
  <path id="line-84" class="line" fill="none" stroke="#000000" d="M 285,935 h -10 l -20,-10 l -20,-20 l -20,-50 l -10,-10 h -20 v 10 h -20 l -20,30 l 10,20 v 30 l 30,20 h 40 v -20 l 30,-10" />
  <path id="line-85" class="line" fill="none" stroke="#000000" d="M 255,945 h 20 v -10" />
  <path id="line-86" class="line" fill="none" stroke="#000000" d="M 145,905 h -10 l -20,10 l -10,-10 h -20 l -30,30 l 30,20 h 30" />
  <path id="line-87" class="line closed" fill="none" stroke="#000000" d="M 145,925 v 40 h -20 l -30,-40 l 40,-10 Z" />
  <path id="line-88" class="line" fill="none" stroke="#000000" d="M 95,895 l 20,-10 l 20,20" />
  <path id="line-89" class="line" fill="none" stroke="#000000" d="M 275,905 h 30 v -10" />
  <path id="line-90" class="line closed" fill="none" stroke="#000000" d="M 175,885 h 10 Z" />
  <path id="line-91" class="line" fill="none" stroke="#000000" d="M 195,875 l 0,0" />
  <path id="line-92" class="line" fill="none" stroke="#000000" d="M 195,905 l 10,-10 l 10,20" />
  <path id="line-93" class="line" fill="none" stroke="#000000" d="M 725,225 l -15,15 v 10 l -20,20 v 10 l -20,20 v 15 l -20,15 v 15 l -15,20 v 10 l -20,20 v 10" />
  <path id="line-94" class="line" fill="none" stroke="#000000" d="M 705,235 l -15,-15 v -15 l -15,-10 v -15 l -45,-45 v -10 l -15,-20 v -20" />
  <path id="line-95" class="line" fill="none" stroke="#000000" d="M 405,115 l -10,5 v 25 l 20,70 l -15,15 v 10 l -10,15 l -20,30" />
  <path id="line-96" class="line" fill="none" stroke="#000000" d="M 95,355 l -10,5 v 20 l -25,25 v 15 l -20,20 v 15 l -15,20 l 15,15 v 20 l 30,25 v 35 l 25,25" />
  <path id="line-97" class="line" fill="none" stroke="#000000" d="M 1265,55 l -15,10 v 30 l 25,85 l -15,15 v 15 l -15,15 l -25,35" />
  <path id="line-98" class="line" fill="none" stroke="#000000" d="M 1915,205 l -20,20 v 15 l -25,20 v 15 l -20,25 v 15 l -25,20 v 15 l -20,25 v 15 l -25,20 v 15" />
  <path id="line-99" class="line" fill="none" stroke="#000000" d="M 1845,255 l -20,-20 v -15 l -15,-15 v -15 l -55,-55 v -15 l -20,-20 v -25" />
  <path id="line-100" class="line" fill="none" stroke="#000000" d="M 2405,145 l -15,10 v 30 l 25,85 l -15,15 v 15 l -15,15 l -25,35" />
  <path id="line-101" class="line" fill="none" stroke="#000000" d="M 1825,525 l -15,10 v 30 l 25,85 l -15,15 v 15 l -15,15 l -25,35" />
  <path id="line-102" class="line" fill="none" stroke="#000000" d="M 1795,765 l 60,50" />
  <path id="line-103" class="line" fill="none" stroke="#000000" d="M 705,785 l 30,-30" />
  <path id="line-104" class="line" fill="none" stroke="#000000" d="M 45,935 h -20" />
  <path id="line-105" class="line" fill="none" stroke="#000000" d="M 2525,935 l -60,-20" />
  <path id="line-106" class="line closed" fill="none" stroke="#000000" d="M 1445,745 l -10,10 h -30 l -10,-20 l -20,-10 l 30,-20 v 10 v -10 h 40 l 10,30 Z" />
  <path id="line-107" class="line" fill="none" stroke="#000000" d="M 1425,695 l -40,-20 l -30,-10 l -20,20 l -20,-10 h 10 l 10,10 l -10,20" />
  <path id="line-108" class="line" fill="none" stroke="#000000" d="M 1365,725 h -10 l -20,-10 l -20,-20 l -20,-50 l -10,-10 h -20 v 10 h -20 l -20,30 l 10,20 v 30 l 30,20 h 40 v -20 l 30,-10" />
  <path id="line-109" class="line" fill="none" stroke="#000000" d="M 1335,735 h 20 v -10" />
  <path id="line-110" class="line" fill="none" stroke="#000000" d="M 1225,695 h -10 l -20,10 l -10,-10 h -20 l -30,30 l 30,20 h 30" />
  <path id="line-111" class="line closed" fill="none" stroke="#000000" d="M 1225,715 v 40 h -20 l -30,-40 l 40,-10 Z" />
  <path id="line-112" class="line" fill="none" stroke="#000000" d="M 1175,685 l 20,-10 l 20,20" />
  <path id="line-113" class="line" fill="none" stroke="#000000" d="M 1355,695 h 30 v -10" />
  <path id="line-114" class="line closed" fill="none" stroke="#000000" d="M 1255,675 h 10 Z" />
  <path id="line-115" class="line" fill="none" stroke="#000000" d="M 1275,665 l 0,0" />
  <path id="line-116" class="line" fill="none" stroke="#000000" d="M 1275,695 l 10,-10 l 10,20" />
</svg>
